1 10 20
100 200 125
201 210 89
900 1000 174
775 843 153
41 102 119
260 287 123
493 680 145
894 1037 174
657 846 171
522 569 137
456 557 142
726 893 179
33 213 125
236 326 131
870 975 179
513 638 137
940 1104 169
296 318 131
568 664 145
26 98 119
855 878 179
967 1032 156
18 165 122
989 1154 169
717 845 153
202 324 131
11 61 113
755 936 179
84 139 122
825 929 179
333 528 142
391 474 134
39 151 122
737 858 153
15 135 122
854 939 179
124 213 125
866 915 179
618 649 145
506 560 137
481 528 142
385 452 134
290 452 144
836 889 179
724 798 153
738 902 179
791 885 179
554 609 132
340 475 134
605 636 132
353 399 126
869 955 179
284 319 131
50 141 122
413 545 142
216 360 144
738 893 179
756 793 153
545 623 137
807 926 179
968 1136 169
370 395 121
923 1079 174
626 745 171
83 227 125
402 500 142
844 864 148
921 956 174
348 542 142
700 757 171
644 744 171
133 304 128
239 266 123
141 277 128
901 974 174
746 767 153
800 1000 179
451 650 145
297 377 144
463 517 142
275 310 118
867 960 179
60 156 122
229 379 144
245 436 144
758 848 153
428 559 142
653 813 171
606 761 171
550 695 145
562 606 119
463 563 142
302 449 144
146 285 128
672 828 171
796 818 135
935 1054 174
144 328 144
846 914 179
789 889 179
615 723 171
270 461 144
798 886 179
