1 10 20
1 2 2
100 200 125
201 210 89
900 1000 174
10 1 20
2 1 2
200 100 125
201 210 89
1000 900 174
500 600 137
1000 2000 182
2000 1000 182
5000 6000 236
9000 6000 262
1 10 20
10 1 20
50 51 25
51 50 25
305 325 131
7 8 17
8 7 17
100000 100001 129
1 100001 351
999 1000 112
500 1000 179
1 9 20
1 10000 262
31415 27182 272
27182 31415 272
5000 4999 91
4999 1 238
10 1000 179
1000 10 179
999 1000 112
1000 1 179
100 800 171
321 123 131
123456 123457 88
1337 42069 324
42069 1337 324
10000 2000 262
111111 22222 354
84132 32435 351
4521 4211 215
999999 9 525
123456 1 354
5000 10000 262
4999 9999 262
5000 5100 179
7000 6900 257
4000 4002 114
200 212 89
399 698 145
10000 1000 262
99 98 26
1000 999 112
1234 2345 183
40 60 113
3 2 8
888 777 179
300 200 128
200 500 144
800 805 60
3000 3030 155
5123 5234 179
700 750 171
345 456 134
5555 5556 130
100 99 26
401 402 20
998 345 179
709 756 140
308 314 131
5010 5050 135
7881 9011 252
4301 4890 215
3643 3452 194
4531 4356 215
5822 4921 236
4915 4817 179
10285 12801 268
4719 8134 262
101 202 125
3030 4040 238
3214 4213 238
9002 20009 279
5123 9234 262
8432 9012 247
3453 8921 262
6988 8994 252
3123 9012 262
4444 5555 210
8123 987 262
5023 6789 262
4213 4156 158
8754 5710 262
5478 1928 238
2349 4121 238
8091 9901 260
4310 5021 215
5234 3012 238
4104 3 238
42045 31300 324
4133 9001 262
12345 123450 354
10245 1240 262
41023 2401 324
90903 34204 351
40325 2304 324
12040 10000 268
2401 2900 209
40202 30002 324
31201 2311 308
91812 2343 351
3120 9869 262
6778 8769 257
567 34212 308
3214 2244 217
1434 3311 217
4123 4491 215
31240 31040 254
7818 8819 252
3221 3121 199
99047 100047 328
50123 50133 141
4321 9041 262
601 903 179
3214 4232 238
9088 9412 260
